%!PS-Adobe-3.0
%%Creator: graphviz version 2.30.1 (20130407.1713)
%%Title: G
%%Pages: (atend)
%%BoundingBox: (atend)
%%EndComments
save
%%BeginProlog
/DotDict 200 dict def
DotDict begin

/setupLatin1 {
mark
/EncodingVector 256 array def
 EncodingVector 0

ISOLatin1Encoding 0 255 getinterval putinterval
EncodingVector 45 /hyphen put

% Set up ISO Latin 1 character encoding
/starnetISO {
        dup dup findfont dup length dict begin
        { 1 index /FID ne { def }{ pop pop } ifelse
        } forall
        /Encoding EncodingVector def
        currentdict end definefont
} def
/Times-Roman starnetISO def
/Times-Italic starnetISO def
/Times-Bold starnetISO def
/Times-BoldItalic starnetISO def
/Helvetica starnetISO def
/Helvetica-Oblique starnetISO def
/Helvetica-Bold starnetISO def
/Helvetica-BoldOblique starnetISO def
/Courier starnetISO def
/Courier-Oblique starnetISO def
/Courier-Bold starnetISO def
/Courier-BoldOblique starnetISO def
cleartomark
} bind def

%%BeginResource: procset graphviz 0 0
/coord-font-family /Times-Roman def
/default-font-family /Times-Roman def
/coordfont coord-font-family findfont 8 scalefont def

/InvScaleFactor 1.0 def
/set_scale {
       dup 1 exch div /InvScaleFactor exch def
       scale
} bind def

% styles
/solid { [] 0 setdash } bind def
/dashed { [9 InvScaleFactor mul dup ] 0 setdash } bind def
/dotted { [1 InvScaleFactor mul 6 InvScaleFactor mul] 0 setdash } bind def
/invis {/fill {newpath} def /stroke {newpath} def /show {pop newpath} def} bind def
/bold { 2 setlinewidth } bind def
/filled { } bind def
/unfilled { } bind def
/rounded { } bind def
/diagonals { } bind def
/tapered { } bind def

% hooks for setting color 
/nodecolor { sethsbcolor } bind def
/edgecolor { sethsbcolor } bind def
/graphcolor { sethsbcolor } bind def
/nopcolor {pop pop pop} bind def

/beginpage {	% i j npages
	/npages exch def
	/j exch def
	/i exch def
	/str 10 string def
	npages 1 gt {
		gsave
			coordfont setfont
			0 0 moveto
			(\() show i str cvs show (,) show j str cvs show (\)) show
		grestore
	} if
} bind def

/set_font {
	findfont exch
	scalefont setfont
} def

% draw text fitted to its expected width
/alignedtext {			% width text
	/text exch def
	/width exch def
	gsave
		width 0 gt {
			[] 0 setdash
			text stringwidth pop width exch sub text length div 0 text ashow
		} if
	grestore
} def

/boxprim {				% xcorner ycorner xsize ysize
		4 2 roll
		moveto
		2 copy
		exch 0 rlineto
		0 exch rlineto
		pop neg 0 rlineto
		closepath
} bind def

/ellipse_path {
	/ry exch def
	/rx exch def
	/y exch def
	/x exch def
	matrix currentmatrix
	newpath
	x y translate
	rx ry scale
	0 0 1 0 360 arc
	setmatrix
} bind def

/endpage { showpage } bind def
/showpage { } def

/layercolorseq
	[	% layer color sequence - darkest to lightest
		[0 0 0]
		[.2 .8 .8]
		[.4 .8 .8]
		[.6 .8 .8]
		[.8 .8 .8]
	]
def

/layerlen layercolorseq length def

/setlayer {/maxlayer exch def /curlayer exch def
	layercolorseq curlayer 1 sub layerlen mod get
	aload pop sethsbcolor
	/nodecolor {nopcolor} def
	/edgecolor {nopcolor} def
	/graphcolor {nopcolor} def
} bind def

/onlayer { curlayer ne {invis} if } def

/onlayers {
	/myupper exch def
	/mylower exch def
	curlayer mylower lt
	curlayer myupper gt
	or
	{invis} if
} def

/curlayer 0 def

%%EndResource
%%EndProlog
%%BeginSetup
14 default-font-family set_font
1 setmiterlimit
% /arrowlength 10 def
% /arrowwidth 5 def

% make sure pdfmark is harmless for PS-interpreters other than Distiller
/pdfmark where {pop} {userdict /pdfmark /cleartomark load put} ifelse
% make '<<' and '>>' safe on PS Level 1 devices
/languagelevel where {pop languagelevel}{1} ifelse
2 lt {
    userdict (<<) cvn ([) cvn load put
    userdict (>>) cvn ([) cvn load put
} if

%%EndSetup
setupLatin1
%%Page: 1 1
%%PageBoundingBox: 36 36 186 368
%%PageOrientation: Portrait
0 0 1 beginpage
gsave
36 36 150 332 boxprim clip newpath
1 1 set_scale 0 rotate 40 41 translate
% main
gsave
1 setlinewidth
0 0 0 nodecolor
68 162 29.37 18 ellipse_path stroke
0 0 0 nodecolor
14 /Times-Roman set_font
53.5 158.3 moveto 29 (main) alignedtext
grestore
% flute
gsave
1 setlinewidth
0 0 0 nodecolor
68 18 26.95 18 ellipse_path stroke
0 0 0 nodecolor
14 /Times-Roman set_font
55 14.3 moveto 26 (flute) alignedtext
grestore
% main->flute
gsave
1 setlinewidth
0 0 0 edgecolor
newpath 64.75 143.89 moveto
62.95 133.54 60.91 120.06 60 108 curveto
58.8 92.04 58.8 87.96 60 72 curveto
60.64 63.52 61.84 54.34 63.12 46.04 curveto
stroke
0 0 0 edgecolor
newpath 66.58 46.55 moveto
64.75 36.11 lineto
59.68 45.41 lineto
closepath fill
1 setlinewidth
solid
0 0 0 edgecolor
newpath 66.58 46.55 moveto
64.75 36.11 lineto
59.68 45.41 lineto
closepath stroke
grestore
% truc
gsave
1 setlinewidth
0 0 0 nodecolor
96 90 27 18 ellipse_path stroke
0 0 0 nodecolor
14 /Times-Roman set_font
84.5 86.3 moveto 23 (truc) alignedtext
grestore
% main->truc
gsave
1 setlinewidth
0 0 0 edgecolor
newpath 74.64 144.41 moveto
77.91 136.22 81.94 126.14 85.62 116.95 curveto
stroke
0 0 0 edgecolor
newpath 88.95 118.05 moveto
89.41 107.47 lineto
82.45 115.45 lineto
closepath fill
1 setlinewidth
solid
0 0 0 edgecolor
newpath 88.95 118.05 moveto
89.41 107.47 lineto
82.45 115.45 lineto
closepath stroke
grestore
% sucre
gsave
1 setlinewidth
0 0 0 nodecolor
30 234 30.32 18 ellipse_path stroke
0 0 0 nodecolor
14 /Times-Roman set_font
14.5 230.3 moveto 31 (sucre) alignedtext
grestore
% sucre->main
gsave
1 setlinewidth
0 0 0 edgecolor
newpath 38.81 216.76 moveto
43.35 208.4 48.99 198.02 54.1 188.61 curveto
stroke
0 0 0 edgecolor
newpath 57.28 190.09 moveto
58.97 179.63 lineto
51.12 186.75 lineto
closepath fill
1 setlinewidth
solid
0 0 0 edgecolor
newpath 57.28 190.09 moveto
58.97 179.63 lineto
51.12 186.75 lineto
closepath stroke
grestore
% orange
gsave
1 setlinewidth
0 0 0 nodecolor
106 306 36.1 18 ellipse_path stroke
0 0 0 nodecolor
14 /Times-Roman set_font
86 302.3 moveto 40 (orange) alignedtext
grestore
% bleu
gsave
1 setlinewidth
0 0 0 nodecolor
106 234 27 18 ellipse_path stroke
0 0 0 nodecolor
14 /Times-Roman set_font
93.5 230.3 moveto 25 (bleu) alignedtext
grestore
% orange->bleu
gsave
1 setlinewidth
0 0 0 edgecolor
newpath 106 287.7 moveto
106 279.98 106 270.71 106 262.11 curveto
stroke
0 0 0 edgecolor
newpath 109.5 262.1 moveto
106 252.1 lineto
102.5 262.1 lineto
closepath fill
1 setlinewidth
solid
0 0 0 edgecolor
newpath 109.5 262.1 moveto
106 252.1 lineto
102.5 262.1 lineto
closepath stroke
grestore
% bleu->main
gsave
1 setlinewidth
0 0 0 edgecolor
newpath 97.19 216.76 moveto
92.65 208.4 87.01 198.02 81.9 188.61 curveto
stroke
0 0 0 edgecolor
newpath 84.88 186.75 moveto
77.03 179.63 lineto
78.72 190.09 lineto
closepath fill
1 setlinewidth
solid
0 0 0 edgecolor
newpath 84.88 186.75 moveto
77.03 179.63 lineto
78.72 190.09 lineto
closepath stroke
grestore
% truc->flute
gsave
1 setlinewidth
0 0 0 edgecolor
newpath 89.36 72.41 moveto
86.09 64.22 82.06 54.14 78.38 44.95 curveto
stroke
0 0 0 edgecolor
newpath 81.55 43.45 moveto
74.59 35.47 lineto
75.05 46.05 lineto
closepath fill
1 setlinewidth
solid
0 0 0 edgecolor
newpath 81.55 43.45 moveto
74.59 35.47 lineto
75.05 46.05 lineto
closepath stroke
grestore
endpage
showpage
grestore
%%PageTrailer
%%EndPage: 1
%%Trailer
%%Pages: 1
%%BoundingBox: 36 36 186 368
end
restore
%%EOF
